"AddonInfo"
{
	"name"				"ETG_Drive_By"
	"version"			"1.0.0"
	"up_date"			""
	"author_name"		"EthanTheGreat"
	"author_email"		"EthanTheGreatest@gmail.com"
	"author_url"		""
	"info"				"Do Not Redistribute"
	"override"			"0"
}