"VertexlitGeneric"
{
	"$basetexture" "models/tdmcars/bus/banner2"
	"$blendtintbybasealpha" 1
	"$phong" "1"
	"$phongexponent" "20"
	"$phongboost" ".5"	
	"$phongfresnelranges"	"[.3 1 8]"
	"$halflambert" "1"

}
