"UnLitGeneric"
{

	"$baseTexture" "models/player/slow/aliendrone_v3/slow_alien_blood"
	"$model" 1
	"$halflambert" 1
	"$translucent" 1
	"$nocull" 1

	"$envmap" "env_cubemap"
	"$envmaptint" "[.6 1 .7]" 
	"$envmapcontrast" .85
	"$envmapsaturation" 1

   "Proxies"
   {
      "AnimatedTexture"
      {
         "animatedtexturevar" "$basetexture"
	 "animatedtextureframenumvar" "$frame"
         "animatedtextureframerate" 23.00
     	}
}
