VertexlitGeneric
{
	"$basetexture" 	"models\jane\bessie_dress_cm"
	"$bumpmap" 		"models\jane\bessie_dress_n"
	"$nocull" 1

	"$phong" "1"
//	"$phongexponent" "5"
	"$phongexponenttexture" "models\jane\bessie_dress_exp"
	"$phongboost" "2"
 	"$phongfresnelranges" "[0.3 0.7 5]"
	"$PhongAlbedoTint" "1"

	"$rimlight" "1"
	"$rimlightexponent" "10"
	"$rimlightboost" "2"
	"$rimmask" "1"
}