"VertexlitGeneric"
{
	"$basetexturetransform" "center .5 .5 scale 2 20 rotate 0 translate 0 0"
	"$basetexture" "models/tdmcars/tesla_models/led_trim"
	"$nodecal" "1"
	"$colorfix" "{160 10 10}"
	"Proxies"
	{
		"Equals"
		{
			srcVar1 $colorfix
			resultVar	$color
		}
	}
}
